^C:\USERS\BRAD\GOOGLE DRIVE\VISUAL STUDIO 2013\PROJECTS\MINEDITDISTANCE\MINEDITDISTANCE\DEBUG\MINEDIT.OBJ
/OUT:"C:\USERS\BRAD\GOOGLE DRIVE\VISUAL STUDIO 2013\PROJECTS\MINEDITDISTANCE\DEBUG\MINEDITDISTANCE.EXE" /INCREMENTAL /NOLOGO kernel32.lib user32.lib gdi32.lib winspool.lib comdlg32.lib advapi32.lib shell32.lib ole32.lib oleaut32.lib uuid.lib odbc32.lib odbccp32.lib /MANIFEST /MANIFESTUAC:"level='asInvoker' uiAccess='false'" /manifest:embed /DEBUG /PDB:"C:\USERS\BRAD\GOOGLE DRIVE\VISUAL STUDIO 2013\PROJECTS\MINEDITDISTANCE\DEBUG\MINEDITDISTANCE.PDB" /SUBSYSTEM:CONSOLE /TLBID:1 /DYNAMICBASE /NXCOMPAT /IMPLIB:"C:\USERS\BRAD\GOOGLE DRIVE\VISUAL STUDIO 2013\PROJECTS\MINEDITDISTANCE\DEBUG\MINEDITDISTANCE.LIB" /MACHINE:X86 DEBUG\MINEDIT.OBJ
^C:\USERS\BRAD\GOOGLE DRIVE\VISUAL STUDIO 2013\PROJECTS\MINEDITDISTANCE\MINEDITDISTANCE\DEBUG\MAIN.OBJ|C:\USERS\BRAD\GOOGLE DRIVE\VISUAL STUDIO 2013\PROJECTS\MINEDITDISTANCE\MINEDITDISTANCE\DEBUG\MINEDIT.OBJ
/OUT:"C:\USERS\BRAD\GOOGLE DRIVE\VISUAL STUDIO 2013\PROJECTS\MINEDITDISTANCE\DEBUG\MINEDITDISTANCE.EXE" /INCREMENTAL /NOLOGO kernel32.lib user32.lib gdi32.lib winspool.lib comdlg32.lib advapi32.lib shell32.lib ole32.lib oleaut32.lib uuid.lib odbc32.lib odbccp32.lib /MANIFEST /MANIFESTUAC:"level='asInvoker' uiAccess='false'" /manifest:embed /DEBUG /PDB:"C:\USERS\BRAD\GOOGLE DRIVE\VISUAL STUDIO 2013\PROJECTS\MINEDITDISTANCE\DEBUG\MINEDITDISTANCE.PDB" /SUBSYSTEM:CONSOLE /TLBID:1 /DYNAMICBASE /NXCOMPAT /IMPLIB:"C:\USERS\BRAD\GOOGLE DRIVE\VISUAL STUDIO 2013\PROJECTS\MINEDITDISTANCE\DEBUG\MINEDITDISTANCE.LIB" /MACHINE:X86 DEBUG\MAIN.OBJDEBUG\MINEDIT.OBJ
