^C:\USERS\BRAD\GOOGLE DRIVE\VISUAL STUDIO 2013\PROJECTS\MINEDITDISTANCE\MINEDITDISTANCE\DEBUG\MAIN.OBJ|C:\USERS\BRAD\GOOGLE DRIVE\VISUAL STUDIO 2013\PROJECTS\MINEDITDISTANCE\MINEDITDISTANCE\DEBUG\MINEDIT.OBJ
C:\USERS\BRAD\GOOGLE DRIVE\VISUAL STUDIO 2013\PROJECTS\MINEDITDISTANCE\DEBUG\MINEDITDISTANCE.ILK
C:\USERS\BRAD\GOOGLE DRIVE\VISUAL STUDIO 2013\PROJECTS\MINEDITDISTANCE\DEBUG\MINEDITDISTANCE.EXE
C:\USERS\BRAD\GOOGLE DRIVE\VISUAL STUDIO 2013\PROJECTS\MINEDITDISTANCE\DEBUG\MINEDITDISTANCE.PDB
