﻿Build started 9/8/2014 9:16:20 PM.
     1>Project "C:\Users\Brad\Google Drive\Visual Studio 2013\Projects\MinEditDistance\MinEditDistance\MinEditDistance.vcxproj" on node 2 (Build target(s)).
     1>PrepareForBuild:
         Creating directory "C:\Users\Brad\Google Drive\Visual Studio 2013\Projects\MinEditDistance\Release\".
         Creating directory "Release\MinEditDistance.tlog\".
       InitializeBuildStatus:
         Creating "Release\MinEditDistance.tlog\unsuccessfulbuild" because "AlwaysCreate" was specified.
       ClCompile:
         C:\Program Files (x86)\Microsoft Visual Studio 12.0\VC\bin\CL.exe /c /Zi /nologo /W3 /WX- /sdl /O2 /Oi /Oy- /GL /D WIN32 /D NDEBUG /D _CONSOLE /D _LIB /D _UNICODE /D UNICODE /Gm- /EHsc /MD /GS /Gy /fp:precise /Zc:wchar_t /Zc:forScope /Fo"Release\\" /Fd"Release\vc120.pdb" /Gd /TP /analyze- /errorReport:prompt main.cpp MinEdit.cpp
         main.cpp
     1>main.cpp(22): warning C4018: '<' : signed/unsigned mismatch
         MinEdit.cpp
       Link:
         C:\Program Files (x86)\Microsoft Visual Studio 12.0\VC\bin\link.exe /ERRORREPORT:PROMPT /OUT:"C:\Users\Brad\Google Drive\Visual Studio 2013\Projects\MinEditDistance\Release\MinEditDistance.exe" /INCREMENTAL:NO /NOLOGO kernel32.lib user32.lib gdi32.lib winspool.lib comdlg32.lib advapi32.lib shell32.lib ole32.lib oleaut32.lib uuid.lib odbc32.lib odbccp32.lib /MANIFEST /MANIFESTUAC:"level='asInvoker' uiAccess='false'" /manifest:embed /DEBUG /PDB:"C:\Users\Brad\Google Drive\Visual Studio 2013\Projects\MinEditDistance\Release\MinEditDistance.pdb" /SUBSYSTEM:CONSOLE /OPT:REF /OPT:ICF /LTCG /TLBID:1 /DYNAMICBASE /NXCOMPAT /IMPLIB:"C:\Users\Brad\Google Drive\Visual Studio 2013\Projects\MinEditDistance\Release\MinEditDistance.lib" /MACHINE:X86 /SAFESEH Release\main.obj
         Release\MinEdit.obj
         Generating code
         Finished generating code
         MinEditDistance.vcxproj -> C:\Users\Brad\Google Drive\Visual Studio 2013\Projects\MinEditDistance\Release\MinEditDistance.exe
       FinalizeBuildStatus:
         Deleting file "Release\MinEditDistance.tlog\unsuccessfulbuild".
         Touching "Release\MinEditDistance.tlog\MinEditDistance.lastbuildstate".
     1>Done Building Project "C:\Users\Brad\Google Drive\Visual Studio 2013\Projects\MinEditDistance\MinEditDistance\MinEditDistance.vcxproj" (Build target(s)).

Build succeeded.

Time Elapsed 00:00:01.03
